%YAML 1.1
%TAG !u! tag:unity3d.com,2011:
--- !u!114 &11400000
MonoBehaviour:
  m_ObjectHideFlags: 0
  m_CorrespondingSourceObject: {fileID: 0}
  m_PrefabInstance: {fileID: 0}
  m_PrefabAsset: {fileID: 0}
  m_GameObject: {fileID: 0}
  m_Enabled: 1
  m_EditorHideFlags: 0
  m_Script: {fileID: 11500000, guid: fdf552460a45ea14fa1168971e994099, type: 3}
  m_Name: Waves
  m_EditorClassIdentifier: 
  wavesCount: 1
  maxWaves: -1
  spd: 1
  MaxSpd: 1
